\relax 
\AC@reset@newl@bel
\citation{Ryden:1988}
\citation{Hirdes:2011fk,Shah:2000}
\citation{Pulsford:2006,Perlman:2008rw}
\citation{Majic:2012}
\citation{Shah:2000,Pulsford:2006,Gustafsson:2013,Ahn:2014}
\citation{Cassie:2012}
\citation{Majic:2012}
\citation{Zeller:2012}
\citation{Majic:2012,Zeller:2014}
\citation{Zeller:2014,Sloane:2004,Enmarker:2011}
\citation{Chan:2006a}
\citation{Lyketsos:2003}
\citation{Hirdes:2011fk}
\citation{Bernabei:2008lq,Gray:2009kt,Hirdes:2008uq}
\@writefile{toc}{\contentsline {section}{\numberline {1}Introduction}{2}}
\citation{Perlman:2008rw}
\citation{Perlman:2008rw}
\citation{Fries:1994nk}
\citation{Morris:1994ve,Hartmaier:1995fq}
\citation{Burrows:2000qf}
\citation{Burrows:2000qf}
\citation{Burrows:2000qf}
\citation{Mor:1995ta,Gerritsen:2008sp}
\citation{Fries:2001tg}
\@writefile{toc}{\contentsline {section}{\numberline {2}Methods}{3}}
\@writefile{toc}{\contentsline {subsection}{\numberline {2.1}Data Source}{3}}
\@writefile{toc}{\contentsline {subsection}{\numberline {2.2}Sample}{3}}
\@writefile{lof}{\contentsline {figure}{\numberline {1}{\ignorespaces Number of assessments available at each time interval.\relax }}{4}}
\newlabel{fig:times}{{1}{4}}
\@writefile{toc}{\contentsline {subsection}{\numberline {2.3}Variables}{4}}
\@writefile{toc}{\contentsline {subsubsection}{\numberline {2.3.1}Dependent Variable}{4}}
\@writefile{toc}{\contentsline {subsubsection}{\numberline {2.3.2}Independent Variables}{4}}
\@writefile{toc}{\contentsline {subsection}{\numberline {2.4}Statistical Analyses}{4}}
\@writefile{toc}{\contentsline {subsubsection}{\numberline {2.4.1}Notation}{4}}
\@writefile{toc}{\contentsline {subsubsection}{\numberline {2.4.2}Model and Assumptions}{5}}
\newlabel{overall}{{1}{5}}
\@writefile{toc}{\contentsline {section}{\numberline {3}Results}{5}}
\@writefile{toc}{\contentsline {subsection}{\numberline {3.1}Descriptive Statistics}{5}}
\@writefile{lot}{\contentsline {table}{\numberline {1}{\ignorespaces Distribution of select patient attributes by aggressive behaviour severity group.\relax }}{6}}
\providecommand*\caption@xref[2]{\@setref\relax\@undefined{#1}}
\newlabel{tab:soc}{{1}{6}}
\@writefile{lot}{\contentsline {table}{\numberline {2}{\ignorespaces Use of select treatments, programs, and medications by aggression severity group.\relax }}{7}}
\newlabel{tab:meds}{{2}{7}}
\@writefile{lot}{\contentsline {table}{\numberline {3}{\ignorespaces Distribution of outcome scale and indicie scores by aggression severity group\relax }}{7}}
\newlabel{tab:scales}{{3}{7}}
\@writefile{lot}{\contentsline {table}{\numberline {4}{\ignorespaces Frequency of aggressive behaviours by aggressive behaviour severity group.\relax }}{8}}
\newlabel{tab:abuseitems}{{4}{8}}
\@writefile{toc}{\contentsline {subsection}{\numberline {3.2}Non-Proportional Odds Mixed Model}{9}}
\@writefile{lot}{\contentsline {table}{\numberline {5}{\ignorespaces Non-Proportional Cumulative Odds Mixed Model Predicting Aggressive Behaviour Severity Group\relax }}{9}}
\newlabel{tab:depressionmodel}{{5}{9}}
\@writefile{lof}{\contentsline {figure}{\numberline {2}{\ignorespaces Effect of Signs of Depression on Odds of Aggressive Behaviour Seveirty Group Inclusion Over Time}}{10}}
\newlabel{fig:depressionplot}{{2}{10}}
\@writefile{toc}{\contentsline {section}{\numberline {4}Discussion}{11}}
\@writefile{tdo}{\contentsline {todo}{insert citations for other studies here}{11}}
\pgfsyspdfmark {pgfid1}{31046651}{40369675}
\pgfsyspdfmark {pgfid4}{38094439}{40383131}
\pgfsyspdfmark {pgfid5}{40011367}{40137945}
\@writefile{tdo}{\contentsline {todo}{insert depression studies}{11}}
\pgfsyspdfmark {pgfid6}{35322812}{36358870}
\pgfsyspdfmark {pgfid9}{38094439}{35483895}
\pgfsyspdfmark {pgfid10}{40011367}{35238709}
\@writefile{tdo}{\contentsline {todo}{insert cap citation}{11}}
\pgfsyspdfmark {pgfid11}{16388198}{31011130}
\pgfsyspdfmark {pgfid14}{38094439}{31024586}
\pgfsyspdfmark {pgfid15}{40011367}{30779400}
\@writefile{tdo}{\contentsline {todo}{insert citation for the effect of gender and cognitive impairment}{11}}
\pgfsyspdfmark {pgfid16}{29556210}{26109035}
\pgfsyspdfmark {pgfid19}{38094439}{26122491}
\pgfsyspdfmark {pgfid20}{40011367}{25877305}
\@writefile{toc}{\contentsline {section}{\numberline {5}Conclusion}{11}}
\@writefile{toc}{\contentsline {section}{\numberline {6}Acknowledgements}{12}}
\bibdata{20160416_HSG720_Final}
\bibcite{Ahn:2014}{{1}{2014}{{Ahn and Horgas}}{{}}}
\bibcite{Bernabei:2008lq}{{2}{2008}{{Bernabei et~al.}}{{}}}
\bibcite{Burrows:2000qf}{{3}{2000}{{Burrows et~al.}}{{}}}
\bibcite{Cassie:2012}{{4}{2012}{{Cassie}}{{}}}
\bibcite{Chan:2006a}{{5}{2006}{{Chan et~al.}}{{}}}
\bibcite{Enmarker:2011}{{6}{2011}{{Enmarker et~al.}}{{}}}
\bibcite{Fries:2001tg}{{7}{2001}{{Fries et~al.}}{{}}}
\bibcite{Gerritsen:2008sp}{{8}{2008}{{Gerritsen et~al.}}{{}}}
\bibcite{Gray:2009kt}{{9}{2009}{{Gray et~al.}}{{}}}
\bibcite{Gustafsson:2013}{{10}{2013}{{Gustafsson et~al.}}{{}}}
\bibcite{Hartmaier:1995fq}{{11}{1995}{{Hartmaier et~al.}}{{}}}
\bibcite{Hirdes:2008uq}{{12}{2008}{{Hirdes et~al.}}{{}}}
\bibcite{Hirdes:2011fk}{{13}{2011}{{Hirdes et~al.}}{{}}}
\bibcite{Lyketsos:2003}{{14}{2003}{{Lyketsos et~al.}}{{}}}
\bibcite{Majic:2012}{{15}{2012}{{Majic et~al.}}{{}}}
\bibcite{Mor:1995ta}{{16}{1995}{{Mor et~al.}}{{}}}
\bibcite{Morris:1994ve}{{17}{1994}{{Morris et~al.}}{{}}}
\bibcite{Fries:1994nk}{{18}{1999}{{Morris et~al.}}{{}}}
\bibcite{Perlman:2008rw}{{19}{2008}{{Perlman and Hirdes}}{{}}}
\bibcite{Pulsford:2006}{{20}{2006}{{Pulsford and Duxbury}}{{}}}
\bibcite{Ryden:1988}{{21}{1988}{{Ryden}}{{}}}
\bibcite{Shah:2000}{{22}{2000}{{Shah et~al.}}{{}}}
\bibcite{Sloane:2004}{{23}{2004}{{Sloane et~al.}}{{}}}
\bibcite{Zeller:2012}{{24}{2012}{{Zeller et~al.}}{{}}}
\bibcite{Zeller:2014}{{25}{2014}{{Zeller et~al.}}{{}}}
\bibstyle{apalike}
