PWD /Users/luketurcotte/Dropbox/Papers/HSG720
INPUT /usr/local/texlive/2015/texmf.cnf
INPUT /usr/local/texlive/2015/texmf-dist/web2c/texmf.cnf
INPUT /usr/local/texlive/2015/texmf-var/web2c/xetex/xelatex.fmt
INPUT 20160404_HSG720_Final.txt
OUTPUT latex.out/20160404_HSG720_Final.log
INPUT /usr/local/texlive/2015/texmf-dist/tex/latex/base/article.cls
INPUT /usr/local/texlive/2015/texmf-dist/tex/latex/base/article.cls
INPUT /usr/local/texlive/2015/texmf-dist/tex/latex/base/size11.clo
INPUT /usr/local/texlive/2015/texmf-dist/tex/latex/base/size11.clo
INPUT /usr/local/texlive/2015/texmf-dist/fonts/map/fontname/texfonts.map
INPUT /usr/local/texlive/2015/texmf-dist/fonts/tfm/public/cm/cmr10.tfm
INPUT /usr/local/texlive/2015/texmf-dist/tex/latex/graphics/graphicx.sty
INPUT /usr/local/texlive/2015/texmf-dist/tex/latex/graphics/graphicx.sty
INPUT /usr/local/texlive/2015/texmf-dist/tex/latex/graphics/keyval.sty
INPUT /usr/local/texlive/2015/texmf-dist/tex/latex/graphics/keyval.sty
INPUT /usr/local/texlive/2015/texmf-dist/tex/latex/graphics/graphics.sty
INPUT /usr/local/texlive/2015/texmf-dist/tex/latex/graphics/graphics.sty
INPUT /usr/local/texlive/2015/texmf-dist/tex/latex/graphics/trig.sty
INPUT /usr/local/texlive/2015/texmf-dist/tex/latex/graphics/trig.sty
INPUT /usr/local/texlive/2015/texmf-dist/tex/latex/latexconfig/graphics.cfg
INPUT /usr/local/texlive/2015/texmf-dist/tex/latex/latexconfig/graphics.cfg
INPUT /usr/local/texlive/2015/texmf-dist/tex/xelatex/xetex-def/xetex.def
INPUT /usr/local/texlive/2015/texmf-dist/tex/xelatex/xetex-def/xetex.def
INPUT /usr/local/texlive/2015/texmf-dist/tex/generic/oberdiek/infwarerr.sty
INPUT /usr/local/texlive/2015/texmf-dist/tex/generic/oberdiek/infwarerr.sty
INPUT /usr/local/texlive/2015/texmf-dist/tex/generic/oberdiek/ltxcmds.sty
INPUT /usr/local/texlive/2015/texmf-dist/tex/generic/oberdiek/ltxcmds.sty
INPUT /usr/local/texlive/2015/texmf-dist/tex/latex/graphics/color.sty
INPUT /usr/local/texlive/2015/texmf-dist/tex/latex/graphics/color.sty
INPUT /usr/local/texlive/2015/texmf-dist/tex/latex/latexconfig/color.cfg
INPUT /usr/local/texlive/2015/texmf-dist/tex/latex/latexconfig/color.cfg
INPUT /usr/local/texlive/2015/texmf-dist/tex/latex/framed/framed.sty
INPUT /usr/local/texlive/2015/texmf-dist/tex/latex/framed/framed.sty
INPUT /usr/local/texlive/2015/texmf-dist/tex/latex/base/alltt.sty
INPUT /usr/local/texlive/2015/texmf-dist/tex/latex/base/alltt.sty
INPUT /usr/local/texlive/2015/texmf-dist/tex/latex/natbib/natbib.sty
INPUT /usr/local/texlive/2015/texmf-dist/tex/latex/natbib/natbib.sty
INPUT /usr/local/texlive/2015/texmf-dist/tex/latex/geometry/geometry.sty
INPUT /usr/local/texlive/2015/texmf-dist/tex/latex/geometry/geometry.sty
INPUT /usr/local/texlive/2015/texmf-dist/tex/generic/oberdiek/ifpdf.sty
INPUT /usr/local/texlive/2015/texmf-dist/tex/generic/oberdiek/ifpdf.sty
INPUT /usr/local/texlive/2015/texmf-dist/tex/generic/oberdiek/ifvtex.sty
INPUT /usr/local/texlive/2015/texmf-dist/tex/generic/oberdiek/ifvtex.sty
INPUT /usr/local/texlive/2015/texmf-dist/tex/generic/ifxetex/ifxetex.sty
INPUT /usr/local/texlive/2015/texmf-dist/tex/generic/ifxetex/ifxetex.sty
INPUT /usr/local/texlive/2015/texmf-dist/tex/latex/todonotes/todonotes.sty
INPUT /usr/local/texlive/2015/texmf-dist/tex/latex/todonotes/todonotes.sty
INPUT /usr/local/texlive/2015/texmf-dist/tex/latex/base/ifthen.sty
INPUT /usr/local/texlive/2015/texmf-dist/tex/latex/base/ifthen.sty
INPUT /usr/local/texlive/2015/texmf-dist/tex/latex/xkeyval/xkeyval.sty
INPUT /usr/local/texlive/2015/texmf-dist/tex/latex/xkeyval/xkeyval.sty
INPUT /usr/local/texlive/2015/texmf-dist/tex/generic/xkeyval/xkeyval.tex
INPUT /usr/local/texlive/2015/texmf-dist/tex/generic/xkeyval/xkvutils.tex
INPUT /usr/local/texlive/2015/texmf-dist/tex/latex/xcolor/xcolor.sty
INPUT /usr/local/texlive/2015/texmf-dist/tex/latex/xcolor/xcolor.sty
INPUT /usr/local/texlive/2015/texmf-dist/tex/latex/latexconfig/color.cfg
INPUT /usr/local/texlive/2015/texmf-dist/tex/latex/latexconfig/color.cfg
INPUT /usr/local/texlive/2015/texmf-dist/tex/latex/pgf/frontendlayer/tikz.sty
INPUT /usr/local/texlive/2015/texmf-dist/tex/latex/pgf/frontendlayer/tikz.sty
INPUT /usr/local/texlive/2015/texmf-dist/tex/latex/pgf/basiclayer/pgf.sty
INPUT /usr/local/texlive/2015/texmf-dist/tex/latex/pgf/basiclayer/pgf.sty
INPUT /usr/local/texlive/2015/texmf-dist/tex/latex/pgf/utilities/pgfrcs.sty
INPUT /usr/local/texlive/2015/texmf-dist/tex/latex/pgf/utilities/pgfrcs.sty
INPUT /usr/local/texlive/2015/texmf-dist/tex/generic/pgf/utilities/pgfutil-common.tex
INPUT /usr/local/texlive/2015/texmf-dist/tex/generic/pgf/utilities/pgfutil-common-lists.tex
INPUT /usr/local/texlive/2015/texmf-dist/tex/generic/pgf/utilities/pgfutil-latex.def
INPUT /usr/local/texlive/2015/texmf-dist/tex/latex/ms/everyshi.sty
INPUT /usr/local/texlive/2015/texmf-dist/tex/latex/ms/everyshi.sty
INPUT /usr/local/texlive/2015/texmf-dist/tex/generic/pgf/utilities/pgfrcs.code.tex
INPUT /usr/local/texlive/2015/texmf-dist/tex/generic/pgf/utilities/pgfrcs.code.tex
INPUT /usr/local/texlive/2015/texmf-dist/tex/latex/pgf/basiclayer/pgfcore.sty
INPUT /usr/local/texlive/2015/texmf-dist/tex/latex/pgf/basiclayer/pgfcore.sty
INPUT /usr/local/texlive/2015/texmf-dist/tex/latex/pgf/systemlayer/pgfsys.sty
INPUT /usr/local/texlive/2015/texmf-dist/tex/latex/pgf/systemlayer/pgfsys.sty
INPUT /usr/local/texlive/2015/texmf-dist/tex/generic/pgf/systemlayer/pgfsys.code.tex
INPUT /usr/local/texlive/2015/texmf-dist/tex/generic/pgf/systemlayer/pgfsys.code.tex
INPUT /usr/local/texlive/2015/texmf-dist/tex/generic/pgf/utilities/pgfkeys.code.tex
INPUT /usr/local/texlive/2015/texmf-dist/tex/generic/pgf/utilities/pgfkeysfiltered.code.tex
INPUT /usr/local/texlive/2015/texmf-dist/tex/generic/pgf/systemlayer/pgf.cfg
INPUT /usr/local/texlive/2015/texmf-dist/tex/generic/pgf/systemlayer/pgfsys-xetex.def
INPUT /usr/local/texlive/2015/texmf-dist/tex/generic/pgf/systemlayer/pgfsys-xetex.def
INPUT /usr/local/texlive/2015/texmf-dist/tex/generic/pgf/systemlayer/pgfsys-dvipdfmx.def
INPUT /usr/local/texlive/2015/texmf-dist/tex/generic/pgf/systemlayer/pgfsys-common-pdf.def
INPUT /usr/local/texlive/2015/texmf-dist/tex/generic/pgf/systemlayer/pgfsyssoftpath.code.tex
INPUT /usr/local/texlive/2015/texmf-dist/tex/generic/pgf/systemlayer/pgfsyssoftpath.code.tex
INPUT /usr/local/texlive/2015/texmf-dist/tex/generic/pgf/systemlayer/pgfsysprotocol.code.tex
INPUT /usr/local/texlive/2015/texmf-dist/tex/generic/pgf/systemlayer/pgfsysprotocol.code.tex
INPUT /usr/local/texlive/2015/texmf-dist/tex/generic/pgf/basiclayer/pgfcore.code.tex
INPUT /usr/local/texlive/2015/texmf-dist/tex/generic/pgf/basiclayer/pgfcore.code.tex
INPUT /usr/local/texlive/2015/texmf-dist/tex/generic/pgf/math/pgfmath.code.tex
INPUT /usr/local/texlive/2015/texmf-dist/tex/generic/pgf/math/pgfmathcalc.code.tex
INPUT /usr/local/texlive/2015/texmf-dist/tex/generic/pgf/math/pgfmathutil.code.tex
INPUT /usr/local/texlive/2015/texmf-dist/tex/generic/pgf/math/pgfmathparser.code.tex
INPUT /usr/local/texlive/2015/texmf-dist/tex/generic/pgf/math/pgfmathfunctions.code.tex
INPUT /usr/local/texlive/2015/texmf-dist/tex/generic/pgf/math/pgfmathfunctions.basic.code.tex
INPUT /usr/local/texlive/2015/texmf-dist/tex/generic/pgf/math/pgfmathfunctions.trigonometric.code.tex
INPUT /usr/local/texlive/2015/texmf-dist/tex/generic/pgf/math/pgfmathfunctions.random.code.tex
INPUT /usr/local/texlive/2015/texmf-dist/tex/generic/pgf/math/pgfmathfunctions.comparison.code.tex
INPUT /usr/local/texlive/2015/texmf-dist/tex/generic/pgf/math/pgfmathfunctions.base.code.tex
INPUT /usr/local/texlive/2015/texmf-dist/tex/generic/pgf/math/pgfmathfunctions.round.code.tex
INPUT /usr/local/texlive/2015/texmf-dist/tex/generic/pgf/math/pgfmathfunctions.misc.code.tex
INPUT /usr/local/texlive/2015/texmf-dist/tex/generic/pgf/math/pgfmathfunctions.integerarithmetics.code.tex
INPUT /usr/local/texlive/2015/texmf-dist/tex/generic/pgf/math/pgfmathfloat.code.tex
INPUT /usr/local/texlive/2015/texmf-dist/tex/generic/pgf/basiclayer/pgfcorepoints.code.tex
INPUT /usr/local/texlive/2015/texmf-dist/tex/generic/pgf/basiclayer/pgfcorepathconstruct.code.tex
INPUT /usr/local/texlive/2015/texmf-dist/tex/generic/pgf/basiclayer/pgfcorepathusage.code.tex
INPUT /usr/local/texlive/2015/texmf-dist/tex/generic/pgf/basiclayer/pgfcorescopes.code.tex
INPUT /usr/local/texlive/2015/texmf-dist/tex/generic/pgf/basiclayer/pgfcoregraphicstate.code.tex
INPUT /usr/local/texlive/2015/texmf-dist/tex/generic/pgf/basiclayer/pgfcoretransformations.code.tex
INPUT /usr/local/texlive/2015/texmf-dist/tex/generic/pgf/basiclayer/pgfcorequick.code.tex
INPUT /usr/local/texlive/2015/texmf-dist/tex/generic/pgf/basiclayer/pgfcoreobjects.code.tex
INPUT /usr/local/texlive/2015/texmf-dist/tex/generic/pgf/basiclayer/pgfcorepathprocessing.code.tex
INPUT /usr/local/texlive/2015/texmf-dist/tex/generic/pgf/basiclayer/pgfcorearrows.code.tex
INPUT /usr/local/texlive/2015/texmf-dist/tex/generic/pgf/basiclayer/pgfcoreshade.code.tex
INPUT /usr/local/texlive/2015/texmf-dist/tex/generic/pgf/basiclayer/pgfcoreimage.code.tex
INPUT /usr/local/texlive/2015/texmf-dist/tex/generic/pgf/basiclayer/pgfcoreexternal.code.tex
INPUT /usr/local/texlive/2015/texmf-dist/tex/generic/pgf/basiclayer/pgfcorelayers.code.tex
INPUT /usr/local/texlive/2015/texmf-dist/tex/generic/pgf/basiclayer/pgfcoretransparency.code.tex
INPUT /usr/local/texlive/2015/texmf-dist/tex/generic/pgf/basiclayer/pgfcorepatterns.code.tex
INPUT /usr/local/texlive/2015/texmf-dist/tex/generic/pgf/modules/pgfmoduleshapes.code.tex
INPUT /usr/local/texlive/2015/texmf-dist/tex/generic/pgf/modules/pgfmoduleplot.code.tex
INPUT /usr/local/texlive/2015/texmf-dist/tex/latex/pgf/compatibility/pgfcomp-version-0-65.sty
INPUT /usr/local/texlive/2015/texmf-dist/tex/latex/pgf/compatibility/pgfcomp-version-0-65.sty
INPUT /usr/local/texlive/2015/texmf-dist/tex/latex/pgf/compatibility/pgfcomp-version-1-18.sty
INPUT /usr/local/texlive/2015/texmf-dist/tex/latex/pgf/compatibility/pgfcomp-version-1-18.sty
INPUT /usr/local/texlive/2015/texmf-dist/tex/latex/pgf/utilities/pgffor.sty
INPUT /usr/local/texlive/2015/texmf-dist/tex/latex/pgf/utilities/pgffor.sty
INPUT /usr/local/texlive/2015/texmf-dist/tex/latex/pgf/utilities/pgfkeys.sty
INPUT /usr/local/texlive/2015/texmf-dist/tex/latex/pgf/utilities/pgfkeys.sty
INPUT /usr/local/texlive/2015/texmf-dist/tex/generic/pgf/utilities/pgfkeys.code.tex
INPUT /usr/local/texlive/2015/texmf-dist/tex/generic/pgf/utilities/pgfkeys.code.tex
INPUT /usr/local/texlive/2015/texmf-dist/tex/latex/pgf/math/pgfmath.sty
INPUT /usr/local/texlive/2015/texmf-dist/tex/latex/pgf/math/pgfmath.sty
INPUT /usr/local/texlive/2015/texmf-dist/tex/generic/pgf/math/pgfmath.code.tex
INPUT /usr/local/texlive/2015/texmf-dist/tex/generic/pgf/math/pgfmath.code.tex
INPUT /usr/local/texlive/2015/texmf-dist/tex/generic/pgf/utilities/pgffor.code.tex
INPUT /usr/local/texlive/2015/texmf-dist/tex/generic/pgf/utilities/pgffor.code.tex
INPUT /usr/local/texlive/2015/texmf-dist/tex/generic/pgf/math/pgfmath.code.tex
INPUT /usr/local/texlive/2015/texmf-dist/tex/generic/pgf/frontendlayer/tikz/tikz.code.tex
INPUT /usr/local/texlive/2015/texmf-dist/tex/generic/pgf/frontendlayer/tikz/tikz.code.tex
INPUT /usr/local/texlive/2015/texmf-dist/tex/generic/pgf/libraries/pgflibraryplothandlers.code.tex
INPUT /usr/local/texlive/2015/texmf-dist/tex/generic/pgf/libraries/pgflibraryplothandlers.code.tex
INPUT /usr/local/texlive/2015/texmf-dist/tex/generic/pgf/modules/pgfmodulematrix.code.tex
INPUT /usr/local/texlive/2015/texmf-dist/tex/generic/pgf/frontendlayer/tikz/libraries/tikzlibrarytopaths.code.tex
INPUT /usr/local/texlive/2015/texmf-dist/tex/generic/pgf/frontendlayer/tikz/libraries/tikzlibrarytopaths.code.tex
INPUT /usr/local/texlive/2015/texmf-dist/tex/generic/pgf/frontendlayer/tikz/libraries/tikzlibrarypositioning.code.tex
INPUT /usr/local/texlive/2015/texmf-dist/tex/generic/pgf/frontendlayer/tikz/libraries/tikzlibrarypositioning.code.tex
INPUT /usr/local/texlive/2015/texmf-dist/tex/latex/tools/calc.sty
INPUT /usr/local/texlive/2015/texmf-dist/tex/latex/tools/calc.sty
INPUT /usr/local/texlive/2015/texmf-dist/tex/latex/acronym/acronym.sty
INPUT /usr/local/texlive/2015/texmf-dist/tex/latex/acronym/acronym.sty
INPUT /usr/local/texlive/2015/texmf-dist/tex/latex/bigfoot/suffix.sty
INPUT /usr/local/texlive/2015/texmf-dist/tex/latex/bigfoot/suffix.sty
INPUT /usr/local/texlive/2015/texmf-dist/tex/generic/xstring/xstring.sty
INPUT /usr/local/texlive/2015/texmf-dist/tex/generic/xstring/xstring.sty
INPUT /usr/local/texlive/2015/texmf-dist/tex/generic/xstring/xstring.tex
INPUT /usr/local/texlive/2015/texmf-dist/tex/latex/parskip/parskip.sty
INPUT /usr/local/texlive/2015/texmf-dist/tex/latex/parskip/parskip.sty
INPUT /usr/local/texlive/2015/texmf-dist/tex/latex/caption/caption.sty
INPUT /usr/local/texlive/2015/texmf-dist/tex/latex/caption/caption.sty
INPUT /usr/local/texlive/2015/texmf-dist/tex/latex/caption/caption3.sty
INPUT /usr/local/texlive/2015/texmf-dist/tex/latex/caption/caption3.sty
INPUT /usr/local/texlive/2015/texmf-dist/tex/latex/caption/subcaption.sty
INPUT /usr/local/texlive/2015/texmf-dist/tex/latex/caption/subcaption.sty
INPUT /usr/local/texlive/2015/texmf-dist/tex/latex/setspace/setspace.sty
INPUT /usr/local/texlive/2015/texmf-dist/tex/latex/setspace/setspace.sty
INPUT /usr/local/texlive/2015/texmf-dist/tex/latex/tools/indentfirst.sty
INPUT /usr/local/texlive/2015/texmf-dist/tex/latex/tools/indentfirst.sty
INPUT /usr/local/texlive/2015/texmf-dist/tex/latex/multirow/multirow.sty
INPUT /usr/local/texlive/2015/texmf-dist/tex/latex/multirow/multirow.sty
INPUT /usr/local/texlive/2015/texmf-dist/tex/latex/tools/longtable.sty
INPUT /usr/local/texlive/2015/texmf-dist/tex/latex/tools/longtable.sty
INPUT /usr/local/texlive/2015/texmf-dist/tex/latex/tabu/tabu.sty
INPUT /usr/local/texlive/2015/texmf-dist/tex/latex/tabu/tabu.sty
INPUT /usr/local/texlive/2015/texmf-dist/tex/latex/tools/array.sty
INPUT /usr/local/texlive/2015/texmf-dist/tex/latex/tools/array.sty
INPUT /usr/local/texlive/2015/texmf-dist/tex/latex/varwidth/varwidth.sty
INPUT /usr/local/texlive/2015/texmf-dist/tex/latex/varwidth/varwidth.sty
INPUT /usr/local/texlive/2015/texmf-dist/tex/latex/booktabs/booktabs.sty
INPUT /usr/local/texlive/2015/texmf-dist/tex/latex/booktabs/booktabs.sty
INPUT /usr/local/texlive/2015/texmf-dist/tex/latex/amsmath/amsmath.sty
INPUT /usr/local/texlive/2015/texmf-dist/tex/latex/amsmath/amsmath.sty
INPUT /usr/local/texlive/2015/texmf-dist/tex/latex/amsmath/amstext.sty
INPUT /usr/local/texlive/2015/texmf-dist/tex/latex/amsmath/amstext.sty
INPUT /usr/local/texlive/2015/texmf-dist/tex/latex/amsmath/amsgen.sty
INPUT /usr/local/texlive/2015/texmf-dist/tex/latex/amsmath/amsgen.sty
INPUT /usr/local/texlive/2015/texmf-dist/tex/latex/amsmath/amsbsy.sty
INPUT /usr/local/texlive/2015/texmf-dist/tex/latex/amsmath/amsbsy.sty
INPUT /usr/local/texlive/2015/texmf-dist/tex/latex/amsmath/amsopn.sty
INPUT /usr/local/texlive/2015/texmf-dist/tex/latex/amsmath/amsopn.sty
INPUT /Users/luketurcotte/Library/texmf/tex/latex/commonstuff/extraplaceins.sty
INPUT /Users/luketurcotte/Library/texmf/tex/latex/commonstuff/extraplaceins.sty
INPUT /usr/local/texlive/2015/texmf-dist/tex/latex/float/float.sty
INPUT /usr/local/texlive/2015/texmf-dist/tex/latex/float/float.sty
INPUT /usr/local/texlive/2015/texmf-dist/tex/latex/titlesec/titlesec.sty
INPUT /usr/local/texlive/2015/texmf-dist/tex/latex/titlesec/titlesec.sty
INPUT /usr/local/texlive/2015/texmf-dist/tex/latex/enumitem/enumitem.sty
INPUT /usr/local/texlive/2015/texmf-dist/tex/latex/enumitem/enumitem.sty
INPUT /usr/local/texlive/2015/texmf-dist/tex/latex/csquotes/csquotes.sty
INPUT /usr/local/texlive/2015/texmf-dist/tex/latex/csquotes/csquotes.sty
INPUT /usr/local/texlive/2015/texmf-dist/tex/latex/etoolbox/etoolbox.sty
INPUT /usr/local/texlive/2015/texmf-dist/tex/latex/etoolbox/etoolbox.sty
INPUT /usr/local/texlive/2015/texmf-dist/tex/latex/csquotes/csquotes.def
INPUT /usr/local/texlive/2015/texmf-dist/tex/latex/csquotes/csquotes.def
INPUT /usr/local/texlive/2015/texmf-dist/tex/latex/csquotes/csquotes.cfg
INPUT /usr/local/texlive/2015/texmf-dist/tex/latex/csquotes/csquotes.cfg
INPUT /usr/local/texlive/2015/texmf-dist/tex/latex/upquote/upquote.sty
INPUT /usr/local/texlive/2015/texmf-dist/tex/latex/upquote/upquote.sty
INPUT /usr/local/texlive/2015/texmf-dist/tex/latex/upquote/upquote.sty
INPUT latex.out/20160404_HSG720_Final.aux
INPUT latex.out/20160404_HSG720_Final.aux
OUTPUT latex.out/20160404_HSG720_Final.aux
INPUT /usr/local/texlive/2015/texmf-dist/tex/latex/caption/ltcaption.sty
INPUT /usr/local/texlive/2015/texmf-dist/tex/latex/caption/ltcaption.sty
INPUT ./titlepage.tex
INPUT ./titlepage.tex
INPUT /usr/local/texlive/2015/texmf-dist/fonts/tfm/public/cm/cmr12.tfm
INPUT /usr/local/texlive/2015/texmf-dist/fonts/tfm/public/cm/cmbx12.tfm
INPUT /usr/local/texlive/2015/texmf-dist/tex/latex/base/omscmr.fd
INPUT /usr/local/texlive/2015/texmf-dist/tex/latex/base/omscmr.fd
INPUT /usr/local/texlive/2015/texmf-dist/fonts/tfm/public/cm/cmsy10.tfm
INPUT /usr/local/texlive/2015/texmf-dist/fonts/tfm/public/cm/cmr8.tfm
INPUT /usr/local/texlive/2015/texmf-dist/fonts/tfm/public/cm/cmr6.tfm
INPUT /usr/local/texlive/2015/texmf-dist/fonts/tfm/public/cm/cmmi10.tfm
INPUT /usr/local/texlive/2015/texmf-dist/fonts/tfm/public/cm/cmmi8.tfm
INPUT /usr/local/texlive/2015/texmf-dist/fonts/tfm/public/cm/cmmi6.tfm
INPUT /usr/local/texlive/2015/texmf-dist/fonts/tfm/public/cm/cmsy8.tfm
INPUT /usr/local/texlive/2015/texmf-dist/fonts/tfm/public/cm/cmsy6.tfm
INPUT /usr/local/texlive/2015/texmf-dist/fonts/tfm/public/cm/cmex10.tfm
INPUT /usr/local/texlive/2015/texmf-dist/fonts/tfm/public/amsfonts/cmextra/cmex8.tfm
INPUT /usr/local/texlive/2015/texmf-dist/fonts/tfm/public/amsfonts/cmextra/cmex7.tfm
INPUT /usr/local/texlive/2015/texmf-dist/fonts/tfm/public/cm/cmbx10.tfm
INPUT /usr/local/texlive/2015/texmf-dist/fonts/tfm/public/cm/cmbx12.tfm
INPUT assess.pdf
INPUT /usr/local/texlive/2015/texmf-dist/fonts/tfm/public/cm/cmti10.tfm
INPUT ./tables/sociodemographics.tex
INPUT ./tables/sociodemographics.tex
INPUT /usr/local/texlive/2015/texmf-dist/tex/latex/base/omlcmr.fd
INPUT /usr/local/texlive/2015/texmf-dist/tex/latex/base/omlcmr.fd
INPUT ./tables/scales.tex
INPUT ./tables/scales.tex
INPUT ./tables/absitems.tex
INPUT ./tables/absitems.tex
INPUT ./tables/depressionmodel.tex
INPUT ./tables/depressionmodel.tex
INPUT figure/depressionplot-1.pdf
INPUT latex.out/20160404_HSG720_Final.bbl
INPUT latex.out/20160404_HSG720_Final.bbl
INPUT latex.out/20160404_HSG720_Final.aux
